>>>>>>>>>>>>>>>>>>>>>>>>>>>>>>>>>>>>>>>>>>>>>>>>>>>>>>>>>>>>>>>>>>>>>>>>>>>>>>
>>>> Toolkit for HEP Event Generation - ThePEG f0c7c9e4efc0 (default) <<<<<<<<
>>>> Fri Nov 15 16:28:52 2019                                             <<<<
<<<<<<<<<<<<<<<<<<<<<<<<<<<<<<<<<<<<<<<<<<<<<<<<<<<<<<<<<<<<<<<<<<<<<<<<<<<<<<

>> Herwig b7689adb1ad6 (default) / ThePEG f0c7c9e4efc0 (default)

==============================================================================
Statistics for event handler 'EventHandler':
                                       generated    number of    Cross-section
                                          events     attempts             (nb)
==============================================================================
Total (from attempted events): including vetoed events           11.66(3)e-03
==============================================================================
Total (from generated events):            30000        30000     11.66(3)e-03
Events carry unit weights.
==============================================================================
Per matrix element breakdown:
MEbbarg2Y1bbar                                11           11         4(1)e-06
MEcbarg2Y1cbar                                19           19         7(2)e-06
MEsbarg2Y1sbar                                34           34        13(2)e-06
MEubarg2Y1ubar                                49           49        19(3)e-06
MEdbarg2Y1dbar                                64           64        25(3)e-06
MEdubar2Y1W-                                  26           26        10(2)e-06
MEddbar2Y1g                                 3351         3351      1.30(2)e-03
MEddbar2Y1gamma                               20           20         8(2)e-06
MEddbar2Y1Z0                                  19           19         7(2)e-06
MEddbar2Y1Y1                                   0            0                0
MEdg2Y1d                                     424          424     0.165(8)e-03
MEuubar2Y1g                                 7082         7082      2.75(3)e-03
MEuubar2Y1gamma                              114          114        44(4)e-06
MEuubar2Y1Z0                                  21           21         8(2)e-06
MEuubar2Y1Y1                                   0            0                0
MEudbar2Y1W+                                 115          115        45(4)e-06
MEug2Y1u                                    1179         1179      0.46(1)e-03
MEscbar2Y1W-                                   1            1       0.4(4)e-06
MEssbar2Y1g                                   76           76        30(3)e-06
MEssbar2Y1gamma                                0            0                0
MEssbar2Y1Z0                                   0            0                0
MEssbar2Y1Y1                                   0            0                0
MEsg2Y1s                                      23           23         9(2)e-06
MEccbar2Y1g                                   71           71        28(3)e-06
MEccbar2Y1gamma                                1            1       0.4(4)e-06
MEccbar2Y1Z0                                   0            0                0
MEccbar2Y1Y1                                   0            0                0
MEcsbar2Y1W+                                   0            0                0
MEcg2Y1c                                      24           24         9(2)e-06
MEbbbar2Y1g                                   20           20         8(2)e-06
MEbbbar2Y1gamma                                0            0                0
MEbbbar2Y1Z0                                   0            0                0
MEbbbar2Y1H                                    0            0                0
MEbbbar2Y1Y1                                   0            0                0
MEbg2Y1b                                      19           19         7(2)e-06
MEbbbar2Y12XmXm                               28           28        11(2)e-06
MEbbbar2Y12ttbar                               3            3       1.2(7)e-06
MEbbbar2Y12bbbar                               4            4       1.6(8)e-06
MEbbbar2Y12ssbar                               7            7         3(1)e-06
MEbbbar2Y12ccbar                               7            7         3(1)e-06
MEbbbar2Y12ddbar                               5            5       1.9(9)e-06
MEbbbar2Y12uubar                               4            4       1.6(8)e-06
MEssbar2Y12XmXm                              121          121        47(4)e-06
MEssbar2Y12ttbar                              17           17         7(2)e-06
MEssbar2Y12bbbar                              23           23         9(2)e-06
MEssbar2Y12ssbar                              27           27        10(2)e-06
MEssbar2Y12ccbar                              19           19         7(2)e-06
MEssbar2Y12ddbar                              25           25       9.7(2)e-06
MEssbar2Y12uubar                              15           15         6(2)e-06
MEccbar2Y12XmXm                               74           74        29(3)e-06
MEccbar2Y12ttbar                               5            5       1.9(9)e-06
MEccbar2Y12bbbar                              11           11         4(1)e-06
MEccbar2Y12ssbar                               6            6         2(1)e-06
MEccbar2Y12ccbar                               8            8         3(1)e-06
MEccbar2Y12ddbar                              12           12         5(1)e-06
MEccbar2Y12uubar                              10           10         4(1)e-06
MEddbar2Y12XmXm                             3054         3054      1.19(2)e-03
MEddbar2Y12ttbar                             394          394     0.153(8)e-03
MEddbar2Y12bbbar                             455          455     0.177(8)e-03
MEddbar2Y12ssbar                             436          436     0.170(8)e-03
MEddbar2Y12ccbar                             419          419     0.163(8)e-03
MEddbar2Y12ddbar                             470          470     0.183(8)e-03
MEddbar2Y12uubar                             426          426     0.166(8)e-03
MEuubar2Y12XmXm                             5899         5899      2.29(3)e-03
MEuubar2Y12ttbar                             807          807      0.31(1)e-03
MEuubar2Y12bbbar                             875          875      0.34(1)e-03
MEuubar2Y12ssbar                             897          897      0.35(1)e-03
MEuubar2Y12ccbar                             873          873      0.34(1)e-03
MEuubar2Y12ddbar                             936          936      0.36(1)e-03
MEuubar2Y12uubar                             865          865      0.34(1)e-03
==============================================================================
Per parton extractor breakdown:
PPExtractor                                30000        30000     11.66(3)e-03
==============================================================================
Per incoming partons breakdown:
d dbar                                      4517         4517      1.76(2)e-03
d ubar                                        14           14         5(1)e-06
d g                                          197          197        77(5)e-06
dbar d                                      4527         4527      1.76(2)e-03
dbar u                                        62           62        24(3)e-06
dbar g                                        31           31        12(2)e-06
ubar d                                        12           12         5(1)e-06
ubar u                                      9256         9256      3.60(3)e-03
ubar g                                        28           28        11(2)e-06
u dbar                                        53           53        21(3)e-06
u ubar                                      9113         9113      3.54(3)e-03
u g                                          591          591     0.230(9)e-03
c cbar                                       115          115        45(4)e-06
c sbar                                         0            0                0
c g                                           15           15         6(2)e-06
cbar c                                        83           83        32(4)e-06
cbar s                                         1            1       0.4(4)e-06
cbar g                                        13           13         5(1)e-06
sbar c                                         0            0                0
sbar s                                       162          162        63(5)e-06
sbar g                                        12           12         5(1)e-06
s cbar                                         0            0                0
s sbar                                       161          161        63(5)e-06
s g                                           15           15         6(2)e-06
b bbar                                        40           40        16(2)e-06
b g                                            7            7         3(1)e-06
bbar b                                        38           38        15(2)e-06
bbar g                                         8            8         3(1)e-06
g d                                          227          227        88(6)e-06
g dbar                                        33           33        13(2)e-06
g ubar                                        21           21         8(2)e-06
g u                                          588          588     0.229(9)e-03
g c                                            9            9         3(1)e-06
g cbar                                         6            6         2(1)e-06
g sbar                                        22           22         9(2)e-06
g s                                            8            8         3(1)e-06
g b                                           12           12         5(1)e-06
g bbar                                         3            3       1.2(7)e-06
==============================================================================
Detailed breakdown:
(PPExtractor) bbar b (MEbbbar2Y1g b,bbar->Y1,g) 
                                              11           11         4(1)e-06
(PPExtractor) bbar b (MEbbbar2Y1gamma b,bbar->Y1,gamma) 
                                               0            0                0
(PPExtractor) bbar b (MEbbbar2Y1Z0 b,bbar->Y1,Z0) 
                                               0            0                0
(PPExtractor) bbar b (MEbbbar2Y1H b,bbar->Y1,H) 
                                               0            0                0
(PPExtractor) bbar b (MEbbbar2Y1Y1 b,bbar->Y1,Y1) 
                                               0            0                0
(PPExtractor) bbar b (MEbbbar2Y12XmXm b,bbar->Xm,Xm) 
                                              15           15         6(2)e-06
(PPExtractor) bbar b (MEbbbar2Y12ttbar b,bbar->t,tbar) 
                                               1            1       0.4(4)e-06
(PPExtractor) bbar b (MEbbbar2Y12bbbar b,bbar->b,bbar) 
                                               2            2       0.8(5)e-06
(PPExtractor) bbar b (MEbbbar2Y12ssbar b,bbar->s,sbar) 
                                               2            2       0.8(5)e-06
(PPExtractor) bbar b (MEbbbar2Y12ccbar b,bbar->c,cbar) 
                                               4            4       1.6(8)e-06
(PPExtractor) bbar b (MEbbbar2Y12ddbar b,bbar->d,dbar) 
                                               0            0                0
(PPExtractor) bbar b (MEbbbar2Y12uubar b,bbar->u,ubar) 
                                               3            3       1.2(7)e-06
(PPExtractor) bbar g (MEbbarg2Y1bbar bbar,g->Y1,bbar) 
                                               8            8         3(1)e-06
(PPExtractor) cbar s (MEscbar2Y1W- s,cbar->Y1,W-) 
                                               1            1       0.4(4)e-06
(PPExtractor) cbar c (MEccbar2Y1g c,cbar->Y1,g) 
                                              32           32        12(2)e-06
(PPExtractor) cbar c (MEccbar2Y1gamma c,cbar->Y1,gamma) 
                                               0            0                0
(PPExtractor) cbar c (MEccbar2Y1Z0 c,cbar->Y1,Z0) 
                                               0            0                0
(PPExtractor) cbar c (MEccbar2Y1Y1 c,cbar->Y1,Y1) 
                                               0            0                0
(PPExtractor) cbar c (MEccbar2Y12XmXm c,cbar->Xm,Xm) 
                                              34           34        13(2)e-06
(PPExtractor) cbar c (MEccbar2Y12ttbar c,cbar->t,tbar) 
                                               2            2       0.8(5)e-06
(PPExtractor) cbar c (MEccbar2Y12bbbar c,cbar->b,bbar) 
                                               0            0                0
(PPExtractor) cbar c (MEccbar2Y12ssbar c,cbar->s,sbar) 
                                               3            3       1.2(7)e-06
(PPExtractor) cbar c (MEccbar2Y12ccbar c,cbar->c,cbar) 
                                               2            2       0.8(5)e-06
(PPExtractor) cbar c (MEccbar2Y12ddbar c,cbar->d,dbar) 
                                               6            6         2(1)e-06
(PPExtractor) cbar c (MEccbar2Y12uubar c,cbar->u,ubar) 
                                               4            4       1.6(8)e-06
(PPExtractor) cbar g (MEcbarg2Y1cbar cbar,g->Y1,cbar) 
                                              13           13         5(1)e-06
(PPExtractor) sbar s (MEssbar2Y1g s,sbar->Y1,g) 
                                              43           43        17(3)e-06
(PPExtractor) sbar s (MEssbar2Y1gamma s,sbar->Y1,gamma) 
                                               0            0                0
(PPExtractor) sbar s (MEssbar2Y1Z0 s,sbar->Y1,Z0) 
                                               0            0                0
(PPExtractor) sbar s (MEssbar2Y1Y1 s,sbar->Y1,Y1) 
                                               0            0                0
(PPExtractor) sbar s (MEssbar2Y12XmXm s,sbar->Xm,Xm) 
                                              56           56        22(3)e-06
(PPExtractor) sbar s (MEssbar2Y12ttbar s,sbar->t,tbar) 
                                               8            8         3(1)e-06
(PPExtractor) sbar s (MEssbar2Y12bbbar s,sbar->b,bbar) 
                                               9            9         3(1)e-06
(PPExtractor) sbar s (MEssbar2Y12ssbar s,sbar->s,sbar) 
                                              13           13         5(1)e-06
(PPExtractor) sbar s (MEssbar2Y12ccbar s,sbar->c,cbar) 
                                              10           10         4(1)e-06
(PPExtractor) sbar s (MEssbar2Y12ddbar s,sbar->d,dbar) 
                                              13           13         5(1)e-06
(PPExtractor) sbar s (MEssbar2Y12uubar s,sbar->u,ubar) 
                                              10           10         4(1)e-06
(PPExtractor) sbar c (MEcsbar2Y1W+ c,sbar->Y1,W+) 
                                               0            0                0
(PPExtractor) sbar g (MEsbarg2Y1sbar sbar,g->Y1,sbar) 
                                              12           12         5(1)e-06
(PPExtractor) ubar d (MEdubar2Y1W- d,ubar->Y1,W-) 
                                              12           12         5(1)e-06
(PPExtractor) ubar u (MEuubar2Y1g u,ubar->Y1,g) 
                                            3582         3582      1.39(2)e-03
(PPExtractor) ubar u (MEuubar2Y1gamma u,ubar->Y1,gamma) 
                                              65           65        25(3)e-06
(PPExtractor) ubar u (MEuubar2Y1Z0 u,ubar->Y1,Z0) 
                                              13           13         5(1)e-06
(PPExtractor) ubar u (MEuubar2Y1Y1 u,ubar->Y1,Y1) 
                                               0            0                0
(PPExtractor) ubar u (MEuubar2Y12XmXm u,ubar->Xm,Xm) 
                                            2942         2942      1.14(2)e-03
(PPExtractor) ubar u (MEuubar2Y12ttbar u,ubar->t,tbar) 
                                             414          414     0.161(8)e-03
(PPExtractor) ubar u (MEuubar2Y12bbbar u,ubar->b,bbar) 
                                             437          437     0.170(8)e-03
(PPExtractor) ubar u (MEuubar2Y12ssbar u,ubar->s,sbar) 
                                             443          443     0.172(8)e-03
(PPExtractor) ubar u (MEuubar2Y12ccbar u,ubar->c,cbar) 
                                             447          447     0.174(8)e-03
(PPExtractor) ubar u (MEuubar2Y12ddbar u,ubar->d,dbar) 
                                             476          476     0.185(8)e-03
(PPExtractor) ubar u (MEuubar2Y12uubar u,ubar->u,ubar) 
                                             437          437     0.170(8)e-03
(PPExtractor) ubar g (MEubarg2Y1ubar ubar,g->Y1,ubar) 
                                              28           28        11(2)e-06
(PPExtractor) dbar d (MEddbar2Y1g d,dbar->Y1,g) 
                                            1680         1680      0.65(2)e-03
(PPExtractor) dbar d (MEddbar2Y1gamma d,dbar->Y1,gamma) 
                                               8            8         3(1)e-06
(PPExtractor) dbar d (MEddbar2Y1Z0 d,dbar->Y1,Z0) 
                                               8            8         3(1)e-06
(PPExtractor) dbar d (MEddbar2Y1Y1 d,dbar->Y1,Y1) 
                                               0            0                0
(PPExtractor) dbar d (MEddbar2Y12XmXm d,dbar->Xm,Xm) 
                                            1522         1522      0.59(1)e-03
(PPExtractor) dbar d (MEddbar2Y12ttbar d,dbar->t,tbar) 
                                             218          218        85(6)e-06
(PPExtractor) dbar d (MEddbar2Y12bbbar d,dbar->b,bbar) 
                                             211          211        82(6)e-06
(PPExtractor) dbar d (MEddbar2Y12ssbar d,dbar->s,sbar) 
                                             207          207        80(6)e-06
(PPExtractor) dbar d (MEddbar2Y12ccbar d,dbar->c,cbar) 
                                             220          220        86(6)e-06
(PPExtractor) dbar d (MEddbar2Y12ddbar d,dbar->d,dbar) 
                                             248          248        96(6)e-06
(PPExtractor) dbar d (MEddbar2Y12uubar d,dbar->u,ubar) 
                                             205          205        80(6)e-06
(PPExtractor) dbar u (MEudbar2Y1W+ u,dbar->Y1,W+) 
                                              62           62        24(3)e-06
(PPExtractor) dbar g (MEdbarg2Y1dbar dbar,g->Y1,dbar) 
                                              31           31        12(2)e-06
(PPExtractor) d ubar (MEdubar2Y1W- d,ubar->Y1,W-) 
                                              14           14         5(1)e-06
(PPExtractor) d dbar (MEddbar2Y1g d,dbar->Y1,g) 
                                            1671         1671      0.65(2)e-03
(PPExtractor) d dbar (MEddbar2Y1gamma d,dbar->Y1,gamma) 
                                              12           12         5(1)e-06
(PPExtractor) d dbar (MEddbar2Y1Z0 d,dbar->Y1,Z0) 
                                              11           11         4(1)e-06
(PPExtractor) d dbar (MEddbar2Y1Y1 d,dbar->Y1,Y1) 
                                               0            0                0
(PPExtractor) d dbar (MEddbar2Y12XmXm d,dbar->Xm,Xm) 
                                            1532         1532      0.60(1)e-03
(PPExtractor) d dbar (MEddbar2Y12ttbar d,dbar->t,tbar) 
                                             176          176        68(5)e-06
(PPExtractor) d dbar (MEddbar2Y12bbbar d,dbar->b,bbar) 
                                             244          244        95(6)e-06
(PPExtractor) d dbar (MEddbar2Y12ssbar d,dbar->s,sbar) 
                                             229          229        89(6)e-06
(PPExtractor) d dbar (MEddbar2Y12ccbar d,dbar->c,cbar) 
                                             199          199        77(5)e-06
(PPExtractor) d dbar (MEddbar2Y12ddbar d,dbar->d,dbar) 
                                             222          222        86(6)e-06
(PPExtractor) d dbar (MEddbar2Y12uubar d,dbar->u,ubar) 
                                             221          221        86(6)e-06
(PPExtractor) d g (MEdg2Y1d d,g->Y1,d) 
                                             197          197        77(5)e-06
(PPExtractor) u ubar (MEuubar2Y1g u,ubar->Y1,g) 
                                            3500         3500      1.36(2)e-03
(PPExtractor) u ubar (MEuubar2Y1gamma u,ubar->Y1,gamma) 
                                              49           49        19(3)e-06
(PPExtractor) u ubar (MEuubar2Y1Z0 u,ubar->Y1,Z0) 
                                               8            8         3(1)e-06
(PPExtractor) u ubar (MEuubar2Y1Y1 u,ubar->Y1,Y1) 
                                               0            0                0
(PPExtractor) u ubar (MEuubar2Y12XmXm u,ubar->Xm,Xm) 
                                            2957         2957      1.15(2)e-03
(PPExtractor) u ubar (MEuubar2Y12ttbar u,ubar->t,tbar) 
                                             393          393     0.153(8)e-03
(PPExtractor) u ubar (MEuubar2Y12bbbar u,ubar->b,bbar) 
                                             438          438     0.170(8)e-03
(PPExtractor) u ubar (MEuubar2Y12ssbar u,ubar->s,sbar) 
                                             454          454     0.177(8)e-03
(PPExtractor) u ubar (MEuubar2Y12ccbar u,ubar->c,cbar) 
                                             426          426     0.166(8)e-03
(PPExtractor) u ubar (MEuubar2Y12ddbar u,ubar->d,dbar) 
                                             460          460     0.179(8)e-03
(PPExtractor) u ubar (MEuubar2Y12uubar u,ubar->u,ubar) 
                                             428          428     0.166(8)e-03
(PPExtractor) u dbar (MEudbar2Y1W+ u,dbar->Y1,W+) 
                                              53           53        21(3)e-06
(PPExtractor) u g (MEug2Y1u u,g->Y1,u) 
                                             591          591     0.230(9)e-03
(PPExtractor) s cbar (MEscbar2Y1W- s,cbar->Y1,W-) 
                                               0            0                0
(PPExtractor) s sbar (MEssbar2Y1g s,sbar->Y1,g) 
                                              33           33        13(2)e-06
(PPExtractor) s sbar (MEssbar2Y1gamma s,sbar->Y1,gamma) 
                                               0            0                0
(PPExtractor) s sbar (MEssbar2Y1Z0 s,sbar->Y1,Z0) 
                                               0            0                0
(PPExtractor) s sbar (MEssbar2Y1Y1 s,sbar->Y1,Y1) 
                                               0            0                0
(PPExtractor) s sbar (MEssbar2Y12XmXm s,sbar->Xm,Xm) 
                                              65           65        25(3)e-06
(PPExtractor) s sbar (MEssbar2Y12ttbar s,sbar->t,tbar) 
                                               9            9         3(1)e-06
(PPExtractor) s sbar (MEssbar2Y12bbbar s,sbar->b,bbar) 
                                              14           14         5(1)e-06
(PPExtractor) s sbar (MEssbar2Y12ssbar s,sbar->s,sbar) 
                                              14           14         5(1)e-06
(PPExtractor) s sbar (MEssbar2Y12ccbar s,sbar->c,cbar) 
                                               9            9         3(1)e-06
(PPExtractor) s sbar (MEssbar2Y12ddbar s,sbar->d,dbar) 
                                              12           12         5(1)e-06
(PPExtractor) s sbar (MEssbar2Y12uubar s,sbar->u,ubar) 
                                               5            5       1.9(9)e-06
(PPExtractor) s g (MEsg2Y1s s,g->Y1,s) 
                                              15           15         6(2)e-06
(PPExtractor) c cbar (MEccbar2Y1g c,cbar->Y1,g) 
                                              39           39        15(2)e-06
(PPExtractor) c cbar (MEccbar2Y1gamma c,cbar->Y1,gamma) 
                                               1            1       0.4(4)e-06
(PPExtractor) c cbar (MEccbar2Y1Z0 c,cbar->Y1,Z0) 
                                               0            0                0
(PPExtractor) c cbar (MEccbar2Y1Y1 c,cbar->Y1,Y1) 
                                               0            0                0
(PPExtractor) c cbar (MEccbar2Y12XmXm c,cbar->Xm,Xm) 
                                              40           40        16(2)e-06
(PPExtractor) c cbar (MEccbar2Y12ttbar c,cbar->t,tbar) 
                                               3            3       1.2(7)e-06
(PPExtractor) c cbar (MEccbar2Y12bbbar c,cbar->b,bbar) 
                                              11           11         4(1)e-06
(PPExtractor) c cbar (MEccbar2Y12ssbar c,cbar->s,sbar) 
                                               3            3       1.2(7)e-06
(PPExtractor) c cbar (MEccbar2Y12ccbar c,cbar->c,cbar) 
                                               6            6         2(1)e-06
(PPExtractor) c cbar (MEccbar2Y12ddbar c,cbar->d,dbar) 
                                               6            6         2(1)e-06
(PPExtractor) c cbar (MEccbar2Y12uubar c,cbar->u,ubar) 
                                               6            6         2(1)e-06
(PPExtractor) c sbar (MEcsbar2Y1W+ c,sbar->Y1,W+) 
                                               0            0                0
(PPExtractor) c g (MEcg2Y1c c,g->Y1,c) 
                                              15           15         6(2)e-06
(PPExtractor) b bbar (MEbbbar2Y1g b,bbar->Y1,g) 
                                               9            9         3(1)e-06
(PPExtractor) b bbar (MEbbbar2Y1gamma b,bbar->Y1,gamma) 
                                               0            0                0
(PPExtractor) b bbar (MEbbbar2Y1Z0 b,bbar->Y1,Z0) 
                                               0            0                0
(PPExtractor) b bbar (MEbbbar2Y1H b,bbar->Y1,H) 
                                               0            0                0
(PPExtractor) b bbar (MEbbbar2Y1Y1 b,bbar->Y1,Y1) 
                                               0            0                0
(PPExtractor) b bbar (MEbbbar2Y12XmXm b,bbar->Xm,Xm) 
                                              13           13         5(1)e-06
(PPExtractor) b bbar (MEbbbar2Y12ttbar b,bbar->t,tbar) 
                                               2            2       0.8(5)e-06
(PPExtractor) b bbar (MEbbbar2Y12bbbar b,bbar->b,bbar) 
                                               2            2       0.8(5)e-06
(PPExtractor) b bbar (MEbbbar2Y12ssbar b,bbar->s,sbar) 
                                               5            5       1.9(9)e-06
(PPExtractor) b bbar (MEbbbar2Y12ccbar b,bbar->c,cbar) 
                                               3            3       1.2(7)e-06
(PPExtractor) b bbar (MEbbbar2Y12ddbar b,bbar->d,dbar) 
                                               5            5       1.9(9)e-06
(PPExtractor) b bbar (MEbbbar2Y12uubar b,bbar->u,ubar) 
                                               1            1       0.4(4)e-06
(PPExtractor) b g (MEbg2Y1b b,g->Y1,b) 
                                               7            7         3(1)e-06
(PPExtractor) g bbar (MEbbarg2Y1bbar bbar,g->Y1,bbar) 
                                               3            3       1.2(7)e-06
(PPExtractor) g cbar (MEcbarg2Y1cbar cbar,g->Y1,cbar) 
                                               6            6         2(1)e-06
(PPExtractor) g sbar (MEsbarg2Y1sbar sbar,g->Y1,sbar) 
                                              22           22         9(2)e-06
(PPExtractor) g ubar (MEubarg2Y1ubar ubar,g->Y1,ubar) 
                                              21           21         8(2)e-06
(PPExtractor) g dbar (MEdbarg2Y1dbar dbar,g->Y1,dbar) 
                                              33           33        13(2)e-06
(PPExtractor) g d (MEdg2Y1d d,g->Y1,d) 
                                             227          227        88(6)e-06
(PPExtractor) g u (MEug2Y1u u,g->Y1,u) 
                                             588          588     0.229(9)e-03
(PPExtractor) g s (MEsg2Y1s s,g->Y1,s) 
                                               8            8         3(1)e-06
(PPExtractor) g c (MEcg2Y1c c,g->Y1,c) 
                                               9            9         3(1)e-06
(PPExtractor) g b (MEbg2Y1b b,g->Y1,b) 
                                              12           12         5(1)e-06
==============================================================================
