>>>>>>>>>>>>>>>>>>>>>>>>>>>>>>>>>>>>>>>>>>>>>>>>>>>>>>>>>>>>>>>>>>>>>>>>>>>>>>
>>>> Toolkit for HEP Event Generation - ThePEG f0c7c9e4efc0 (default) <<<<<<<<
>>>> Fri Nov 15 16:29:33 2019                                             <<<<
<<<<<<<<<<<<<<<<<<<<<<<<<<<<<<<<<<<<<<<<<<<<<<<<<<<<<<<<<<<<<<<<<<<<<<<<<<<<<<

>> Herwig b7689adb1ad6 (default) / ThePEG f0c7c9e4efc0 (default)

==============================================================================
Statistics for event handler 'EventHandler':
                                       generated    number of    Cross-section
                                          events     attempts             (nb)
==============================================================================
Total (from attempted events): including vetoed events           17.09(5)e-03
==============================================================================
Total (from generated events):            30000        30002     17.09(5)e-03
Events carry unit weights.
==============================================================================
Per matrix element breakdown:
MEbbarg2Y1bbar                                19           19        11(2)e-06
MEcbarg2Y1cbar                                35           35        20(3)e-06
MEsbarg2Y1sbar                                32           32        18(3)e-06
MEubarg2Y1ubar                                73           73        42(5)e-06
MEdbarg2Y1dbar                                71           71        40(5)e-06
MEdubar2Y1W-                                  36           36        21(3)e-06
MEddbar2Y1g                                 3517         3517      2.00(3)e-03
MEddbar2Y1gamma                               11           11         6(2)e-06
MEddbar2Y1Z0                                  23           23        13(3)e-06
MEddbar2Y1Y1                                   0            0                0
MEdg2Y1d                                     454          455      0.26(1)e-03
MEuubar2Y1g                                 7002         7003      3.99(4)e-03
MEuubar2Y1gamma                               86           86        49(5)e-06
MEuubar2Y1Z0                                  22           22        13(3)e-06
MEuubar2Y1Y1                                   0            0                0
MEudbar2Y1W+                                 109          109        62(6)e-06
MEug2Y1u                                    1230         1230      0.70(2)e-03
MEscbar2Y1W-                                   0            0                0
MEssbar2Y1g                                  114          114        65(6)e-06
MEssbar2Y1gamma                                0            0                0
MEssbar2Y1Z0                                   1            1       0.6(6)e-06
MEssbar2Y1Y1                                   0            0                0
MEsg2Y1s                                      27           27        15(3)e-06
MEccbar2Y1g                                   75           75        43(5)e-06
MEccbar2Y1gamma                                2            2       1.1(8)e-06
MEccbar2Y1Z0                                   0            0                0
MEccbar2Y1Y1                                   0            0                0
MEcsbar2Y1W+                                   3            3         2(1)e-06
MEcg2Y1c                                      42           42        24(4)e-06
MEbbbar2Y1g                                   19           19        11(2)e-06
MEbbbar2Y1gamma                                0            0                0
MEbbbar2Y1Z0                                   1            1       0.6(6)e-06
MEbbbar2Y1H                                    0            0                0
MEbbbar2Y1Y1                                   0            0                0
MEbg2Y1b                                      20           20        11(3)e-06
MEbbbar2Y12XmXm                               29           29        17(3)e-06
MEbbbar2Y12ttbar                               5            5         3(1)e-06
MEbbbar2Y12bbbar                               4            4         2(1)e-06
MEbbbar2Y12ssbar                               3            3         2(1)e-06
MEbbbar2Y12ccbar                               5            5         3(1)e-06
MEbbbar2Y12ddbar                               4            4         2(1)e-06
MEbbbar2Y12uubar                               8            8         5(2)e-06
MEssbar2Y12XmXm                              136          136        77(7)e-06
MEssbar2Y12ttbar                              22           22        13(3)e-06
MEssbar2Y12bbbar                              19           19        11(2)e-06
MEssbar2Y12ssbar                              24           24        14(3)e-06
MEssbar2Y12ccbar                              15           15         9(2)e-06
MEssbar2Y12ddbar                              15           15         9(2)e-06
MEssbar2Y12uubar                              29           29        17(3)e-06
MEccbar2Y12XmXm                               75           75        43(5)e-06
MEccbar2Y12ttbar                              10           10         6(2)e-06
MEccbar2Y12bbbar                              13           13         7(2)e-06
MEccbar2Y12ssbar                              15           15         9(2)e-06
MEccbar2Y12ccbar                              16           16         9(2)e-06
MEccbar2Y12ddbar                              13           13         7(2)e-06
MEccbar2Y12uubar                              16           16         9(2)e-06
MEddbar2Y12XmXm                             3082         3082      1.76(3)e-03
MEddbar2Y12ttbar                             441          441      0.25(1)e-03
MEddbar2Y12bbbar                             428          428      0.24(1)e-03
MEddbar2Y12ssbar                             434          434      0.25(1)e-03
MEddbar2Y12ccbar                             470          470      0.27(1)e-03
MEddbar2Y12ddbar                             418          418      0.24(1)e-03
MEddbar2Y12uubar                             426          426      0.24(1)e-03
MEuubar2Y12XmXm                             5822         5822      3.32(4)e-03
MEuubar2Y12ttbar                             803          803      0.46(2)e-03
MEuubar2Y12bbbar                             861          861      0.49(2)e-03
MEuubar2Y12ssbar                             808          808      0.46(2)e-03
MEuubar2Y12ccbar                             807          807      0.46(2)e-03
MEuubar2Y12ddbar                             861          861      0.49(2)e-03
MEuubar2Y12uubar                             839          839      0.48(2)e-03
==============================================================================
Per parton extractor breakdown:
PPExtractor                                30000        30002     17.09(5)e-03
==============================================================================
Per incoming partons breakdown:
d dbar                                      4661         4661      2.66(4)e-03
d ubar                                        20           20        11(3)e-06
d g                                          196          196     0.112(8)e-03
dbar d                                      4589         4589      2.61(4)e-03
dbar u                                        48           48        27(4)e-06
dbar g                                        40           40        23(4)e-06
ubar d                                        16           16         9(2)e-06
ubar u                                      8948         8949      5.10(5)e-03
ubar g                                        33           33        19(3)e-06
u dbar                                        61           61        35(4)e-06
u ubar                                      8963         8963      5.11(5)e-03
u g                                          637          637      0.36(1)e-03
c cbar                                       124          124        71(6)e-06
c sbar                                         0            0                0
c g                                           26           26        15(3)e-06
cbar c                                       111          111        63(6)e-06
cbar s                                         0            0                0
cbar g                                        15           15         9(2)e-06
sbar c                                         3            3         2(1)e-06
sbar s                                       179          179     0.102(8)e-03
sbar g                                        16           16         9(2)e-06
s cbar                                         0            0                0
s sbar                                       196          196     0.112(8)e-03
s g                                           15           15         9(2)e-06
b bbar                                        38           38        22(4)e-06
b g                                           15           15         9(2)e-06
bbar b                                        40           40        23(4)e-06
bbar g                                        13           13         7(2)e-06
g d                                          258          259     0.147(9)e-03
g dbar                                        31           31        18(3)e-06
g ubar                                        40           40        23(4)e-06
g u                                          593          593      0.34(1)e-03
g c                                           16           16         9(2)e-06
g cbar                                        20           20        11(3)e-06
g sbar                                        16           16         9(2)e-06
g s                                           12           12         7(2)e-06
g b                                            5            5         3(1)e-06
g bbar                                         6            6         3(1)e-06
==============================================================================
Detailed breakdown:
(PPExtractor) bbar b (MEbbbar2Y1g b,bbar->Y1,g) 
                                              13           13         7(2)e-06
(PPExtractor) bbar b (MEbbbar2Y1gamma b,bbar->Y1,gamma) 
                                               0            0                0
(PPExtractor) bbar b (MEbbbar2Y1Z0 b,bbar->Y1,Z0) 
                                               0            0                0
(PPExtractor) bbar b (MEbbbar2Y1H b,bbar->Y1,H) 
                                               0            0                0
(PPExtractor) bbar b (MEbbbar2Y1Y1 b,bbar->Y1,Y1) 
                                               0            0                0
(PPExtractor) bbar b (MEbbbar2Y12XmXm b,bbar->Xm,Xm) 
                                              11           11         6(2)e-06
(PPExtractor) bbar b (MEbbbar2Y12ttbar b,bbar->t,tbar) 
                                               3            3         2(1)e-06
(PPExtractor) bbar b (MEbbbar2Y12bbbar b,bbar->b,bbar) 
                                               2            2       1.1(8)e-06
(PPExtractor) bbar b (MEbbbar2Y12ssbar b,bbar->s,sbar) 
                                               2            2       1.1(8)e-06
(PPExtractor) bbar b (MEbbbar2Y12ccbar b,bbar->c,cbar) 
                                               2            2       1.1(8)e-06
(PPExtractor) bbar b (MEbbbar2Y12ddbar b,bbar->d,dbar) 
                                               3            3         2(1)e-06
(PPExtractor) bbar b (MEbbbar2Y12uubar b,bbar->u,ubar) 
                                               4            4         2(1)e-06
(PPExtractor) bbar g (MEbbarg2Y1bbar bbar,g->Y1,bbar) 
                                              13           13         7(2)e-06
(PPExtractor) cbar s (MEscbar2Y1W- s,cbar->Y1,W-) 
                                               0            0                0
(PPExtractor) cbar c (MEccbar2Y1g c,cbar->Y1,g) 
                                              37           37        21(3)e-06
(PPExtractor) cbar c (MEccbar2Y1gamma c,cbar->Y1,gamma) 
                                               1            1       0.6(6)e-06
(PPExtractor) cbar c (MEccbar2Y1Z0 c,cbar->Y1,Z0) 
                                               0            0                0
(PPExtractor) cbar c (MEccbar2Y1Y1 c,cbar->Y1,Y1) 
                                               0            0                0
(PPExtractor) cbar c (MEccbar2Y12XmXm c,cbar->Xm,Xm) 
                                              36           36        21(3)e-06
(PPExtractor) cbar c (MEccbar2Y12ttbar c,cbar->t,tbar) 
                                               3            3         2(1)e-06
(PPExtractor) cbar c (MEccbar2Y12bbbar c,cbar->b,bbar) 
                                               6            6         3(1)e-06
(PPExtractor) cbar c (MEccbar2Y12ssbar c,cbar->s,sbar) 
                                               6            6         3(1)e-06
(PPExtractor) cbar c (MEccbar2Y12ccbar c,cbar->c,cbar) 
                                              10           10         6(2)e-06
(PPExtractor) cbar c (MEccbar2Y12ddbar c,cbar->d,dbar) 
                                               6            6         3(1)e-06
(PPExtractor) cbar c (MEccbar2Y12uubar c,cbar->u,ubar) 
                                               6            6         3(1)e-06
(PPExtractor) cbar g (MEcbarg2Y1cbar cbar,g->Y1,cbar) 
                                              15           15         9(2)e-06
(PPExtractor) sbar s (MEssbar2Y1g s,sbar->Y1,g) 
                                              56           56        32(4)e-06
(PPExtractor) sbar s (MEssbar2Y1gamma s,sbar->Y1,gamma) 
                                               0            0                0
(PPExtractor) sbar s (MEssbar2Y1Z0 s,sbar->Y1,Z0) 
                                               1            1       0.6(6)e-06
(PPExtractor) sbar s (MEssbar2Y1Y1 s,sbar->Y1,Y1) 
                                               0            0                0
(PPExtractor) sbar s (MEssbar2Y12XmXm s,sbar->Xm,Xm) 
                                              60           60        34(4)e-06
(PPExtractor) sbar s (MEssbar2Y12ttbar s,sbar->t,tbar) 
                                               9            9         5(2)e-06
(PPExtractor) sbar s (MEssbar2Y12bbbar s,sbar->b,bbar) 
                                              12           12         7(2)e-06
(PPExtractor) sbar s (MEssbar2Y12ssbar s,sbar->s,sbar) 
                                               5            5         3(1)e-06
(PPExtractor) sbar s (MEssbar2Y12ccbar s,sbar->c,cbar) 
                                               7            7         4(2)e-06
(PPExtractor) sbar s (MEssbar2Y12ddbar s,sbar->d,dbar) 
                                              11           11         6(2)e-06
(PPExtractor) sbar s (MEssbar2Y12uubar s,sbar->u,ubar) 
                                              18           18        10(2)e-06
(PPExtractor) sbar c (MEcsbar2Y1W+ c,sbar->Y1,W+) 
                                               3            3         2(1)e-06
(PPExtractor) sbar g (MEsbarg2Y1sbar sbar,g->Y1,sbar) 
                                              16           16         9(2)e-06
(PPExtractor) ubar d (MEdubar2Y1W- d,ubar->Y1,W-) 
                                              16           16         9(2)e-06
(PPExtractor) ubar u (MEuubar2Y1g u,ubar->Y1,g) 
                                            3502         3503      1.99(3)e-03
(PPExtractor) ubar u (MEuubar2Y1gamma u,ubar->Y1,gamma) 
                                              33           33        19(3)e-06
(PPExtractor) ubar u (MEuubar2Y1Z0 u,ubar->Y1,Z0) 
                                              11           11         6(2)e-06
(PPExtractor) ubar u (MEuubar2Y1Y1 u,ubar->Y1,Y1) 
                                               0            0                0
(PPExtractor) ubar u (MEuubar2Y12XmXm u,ubar->Xm,Xm) 
                                            2931         2931      1.67(3)e-03
(PPExtractor) ubar u (MEuubar2Y12ttbar u,ubar->t,tbar) 
                                             395          395      0.23(1)e-03
(PPExtractor) ubar u (MEuubar2Y12bbbar u,ubar->b,bbar) 
                                             436          436      0.25(1)e-03
(PPExtractor) ubar u (MEuubar2Y12ssbar u,ubar->s,sbar) 
                                             414          414      0.24(1)e-03
(PPExtractor) ubar u (MEuubar2Y12ccbar u,ubar->c,cbar) 
                                             407          407      0.23(1)e-03
(PPExtractor) ubar u (MEuubar2Y12ddbar u,ubar->d,dbar) 
                                             390          390      0.22(1)e-03
(PPExtractor) ubar u (MEuubar2Y12uubar u,ubar->u,ubar) 
                                             429          429      0.24(1)e-03
(PPExtractor) ubar g (MEubarg2Y1ubar ubar,g->Y1,ubar) 
                                              33           33        19(3)e-06
(PPExtractor) dbar d (MEddbar2Y1g d,dbar->Y1,g) 
                                            1747         1747     0.995(2)e-03
(PPExtractor) dbar d (MEddbar2Y1gamma d,dbar->Y1,gamma) 
                                               4            4         2(1)e-06
(PPExtractor) dbar d (MEddbar2Y1Z0 d,dbar->Y1,Z0) 
                                               9            9         5(2)e-06
(PPExtractor) dbar d (MEddbar2Y1Y1 d,dbar->Y1,Y1) 
                                               0            0                0
(PPExtractor) dbar d (MEddbar2Y12XmXm d,dbar->Xm,Xm) 
                                            1518         1518      0.86(2)e-03
(PPExtractor) dbar d (MEddbar2Y12ttbar d,dbar->t,tbar) 
                                             239          239     0.136(9)e-03
(PPExtractor) dbar d (MEddbar2Y12bbbar d,dbar->b,bbar) 
                                             214          214     0.122(8)e-03
(PPExtractor) dbar d (MEddbar2Y12ssbar d,dbar->s,sbar) 
                                             222          222     0.126(8)e-03
(PPExtractor) dbar d (MEddbar2Y12ccbar d,dbar->c,cbar) 
                                             219          219     0.125(8)e-03
(PPExtractor) dbar d (MEddbar2Y12ddbar d,dbar->d,dbar) 
                                             199          199     0.113(8)e-03
(PPExtractor) dbar d (MEddbar2Y12uubar d,dbar->u,ubar) 
                                             218          218     0.124(8)e-03
(PPExtractor) dbar u (MEudbar2Y1W+ u,dbar->Y1,W+) 
                                              48           48        27(4)e-06
(PPExtractor) dbar g (MEdbarg2Y1dbar dbar,g->Y1,dbar) 
                                              40           40        23(4)e-06
(PPExtractor) d ubar (MEdubar2Y1W- d,ubar->Y1,W-) 
                                              20           20        11(3)e-06
(PPExtractor) d dbar (MEddbar2Y1g d,dbar->Y1,g) 
                                            1770         1770      1.01(2)e-03
(PPExtractor) d dbar (MEddbar2Y1gamma d,dbar->Y1,gamma) 
                                               7            7         4(2)e-06
(PPExtractor) d dbar (MEddbar2Y1Z0 d,dbar->Y1,Z0) 
                                              14           14         8(2)e-06
(PPExtractor) d dbar (MEddbar2Y1Y1 d,dbar->Y1,Y1) 
                                               0            0                0
(PPExtractor) d dbar (MEddbar2Y12XmXm d,dbar->Xm,Xm) 
                                            1564         1564      0.89(2)e-03
(PPExtractor) d dbar (MEddbar2Y12ttbar d,dbar->t,tbar) 
                                             202          202     0.115(8)e-03
(PPExtractor) d dbar (MEddbar2Y12bbbar d,dbar->b,bbar) 
                                             214          214     0.122(8)e-03
(PPExtractor) d dbar (MEddbar2Y12ssbar d,dbar->s,sbar) 
                                             212          212     0.121(8)e-03
(PPExtractor) d dbar (MEddbar2Y12ccbar d,dbar->c,cbar) 
                                             251          251     0.143(9)e-03
(PPExtractor) d dbar (MEddbar2Y12ddbar d,dbar->d,dbar) 
                                             219          219     0.125(8)e-03
(PPExtractor) d dbar (MEddbar2Y12uubar d,dbar->u,ubar) 
                                             208          208     0.118(8)e-03
(PPExtractor) d g (MEdg2Y1d d,g->Y1,d) 
                                             196          196     0.112(8)e-03
(PPExtractor) u ubar (MEuubar2Y1g u,ubar->Y1,g) 
                                            3500         3500      1.99(3)e-03
(PPExtractor) u ubar (MEuubar2Y1gamma u,ubar->Y1,gamma) 
                                              53           53        30(4)e-06
(PPExtractor) u ubar (MEuubar2Y1Z0 u,ubar->Y1,Z0) 
                                              11           11         6(2)e-06
(PPExtractor) u ubar (MEuubar2Y1Y1 u,ubar->Y1,Y1) 
                                               0            0                0
(PPExtractor) u ubar (MEuubar2Y12XmXm u,ubar->Xm,Xm) 
                                            2891         2891      1.65(3)e-03
(PPExtractor) u ubar (MEuubar2Y12ttbar u,ubar->t,tbar) 
                                             408          408      0.23(1)e-03
(PPExtractor) u ubar (MEuubar2Y12bbbar u,ubar->b,bbar) 
                                             425          425      0.24(1)e-03
(PPExtractor) u ubar (MEuubar2Y12ssbar u,ubar->s,sbar) 
                                             394          394      0.22(1)e-03
(PPExtractor) u ubar (MEuubar2Y12ccbar u,ubar->c,cbar) 
                                             400          400      0.23(1)e-03
(PPExtractor) u ubar (MEuubar2Y12ddbar u,ubar->d,dbar) 
                                             471          471      0.27(1)e-03
(PPExtractor) u ubar (MEuubar2Y12uubar u,ubar->u,ubar) 
                                             410          410      0.23(1)e-03
(PPExtractor) u dbar (MEudbar2Y1W+ u,dbar->Y1,W+) 
                                              61           61        35(4)e-06
(PPExtractor) u g (MEug2Y1u u,g->Y1,u) 
                                             637          637      0.36(1)e-03
(PPExtractor) s cbar (MEscbar2Y1W- s,cbar->Y1,W-) 
                                               0            0                0
(PPExtractor) s sbar (MEssbar2Y1g s,sbar->Y1,g) 
                                              58           58        33(4)e-06
(PPExtractor) s sbar (MEssbar2Y1gamma s,sbar->Y1,gamma) 
                                               0            0                0
(PPExtractor) s sbar (MEssbar2Y1Z0 s,sbar->Y1,Z0) 
                                               0            0                0
(PPExtractor) s sbar (MEssbar2Y1Y1 s,sbar->Y1,Y1) 
                                               0            0                0
(PPExtractor) s sbar (MEssbar2Y12XmXm s,sbar->Xm,Xm) 
                                              76           76        43(5)e-06
(PPExtractor) s sbar (MEssbar2Y12ttbar s,sbar->t,tbar) 
                                              13           13         7(2)e-06
(PPExtractor) s sbar (MEssbar2Y12bbbar s,sbar->b,bbar) 
                                               7            7         4(2)e-06
(PPExtractor) s sbar (MEssbar2Y12ssbar s,sbar->s,sbar) 
                                              19           19        11(2)e-06
(PPExtractor) s sbar (MEssbar2Y12ccbar s,sbar->c,cbar) 
                                               8            8         5(2)e-06
(PPExtractor) s sbar (MEssbar2Y12ddbar s,sbar->d,dbar) 
                                               4            4         2(1)e-06
(PPExtractor) s sbar (MEssbar2Y12uubar s,sbar->u,ubar) 
                                              11           11         6(2)e-06
(PPExtractor) s g (MEsg2Y1s s,g->Y1,s) 
                                              15           15         9(2)e-06
(PPExtractor) c cbar (MEccbar2Y1g c,cbar->Y1,g) 
                                              38           38        22(4)e-06
(PPExtractor) c cbar (MEccbar2Y1gamma c,cbar->Y1,gamma) 
                                               1            1       0.6(6)e-06
(PPExtractor) c cbar (MEccbar2Y1Z0 c,cbar->Y1,Z0) 
                                               0            0                0
(PPExtractor) c cbar (MEccbar2Y1Y1 c,cbar->Y1,Y1) 
                                               0            0                0
(PPExtractor) c cbar (MEccbar2Y12XmXm c,cbar->Xm,Xm) 
                                              39           39        22(4)e-06
(PPExtractor) c cbar (MEccbar2Y12ttbar c,cbar->t,tbar) 
                                               7            7         4(2)e-06
(PPExtractor) c cbar (MEccbar2Y12bbbar c,cbar->b,bbar) 
                                               7            7         4(2)e-06
(PPExtractor) c cbar (MEccbar2Y12ssbar c,cbar->s,sbar) 
                                               9            9         5(2)e-06
(PPExtractor) c cbar (MEccbar2Y12ccbar c,cbar->c,cbar) 
                                               6            6         3(1)e-06
(PPExtractor) c cbar (MEccbar2Y12ddbar c,cbar->d,dbar) 
                                               7            7         4(2)e-06
(PPExtractor) c cbar (MEccbar2Y12uubar c,cbar->u,ubar) 
                                              10           10         6(2)e-06
(PPExtractor) c sbar (MEcsbar2Y1W+ c,sbar->Y1,W+) 
                                               0            0                0
(PPExtractor) c g (MEcg2Y1c c,g->Y1,c) 
                                              26           26        15(3)e-06
(PPExtractor) b bbar (MEbbbar2Y1g b,bbar->Y1,g) 
                                               6            6         3(1)e-06
(PPExtractor) b bbar (MEbbbar2Y1gamma b,bbar->Y1,gamma) 
                                               0            0                0
(PPExtractor) b bbar (MEbbbar2Y1Z0 b,bbar->Y1,Z0) 
                                               1            1       0.6(6)e-06
(PPExtractor) b bbar (MEbbbar2Y1H b,bbar->Y1,H) 
                                               0            0                0
(PPExtractor) b bbar (MEbbbar2Y1Y1 b,bbar->Y1,Y1) 
                                               0            0                0
(PPExtractor) b bbar (MEbbbar2Y12XmXm b,bbar->Xm,Xm) 
                                              18           18        10(2)e-06
(PPExtractor) b bbar (MEbbbar2Y12ttbar b,bbar->t,tbar) 
                                               2            2       1.1(8)e-06
(PPExtractor) b bbar (MEbbbar2Y12bbbar b,bbar->b,bbar) 
                                               2            2       1.1(8)e-06
(PPExtractor) b bbar (MEbbbar2Y12ssbar b,bbar->s,sbar) 
                                               1            1       0.6(6)e-06
(PPExtractor) b bbar (MEbbbar2Y12ccbar b,bbar->c,cbar) 
                                               3            3         2(1)e-06
(PPExtractor) b bbar (MEbbbar2Y12ddbar b,bbar->d,dbar) 
                                               1            1       0.6(6)e-06
(PPExtractor) b bbar (MEbbbar2Y12uubar b,bbar->u,ubar) 
                                               4            4         2(1)e-06
(PPExtractor) b g (MEbg2Y1b b,g->Y1,b) 
                                              15           15         9(2)e-06
(PPExtractor) g bbar (MEbbarg2Y1bbar bbar,g->Y1,bbar) 
                                               6            6         3(1)e-06
(PPExtractor) g cbar (MEcbarg2Y1cbar cbar,g->Y1,cbar) 
                                              20           20        11(3)e-06
(PPExtractor) g sbar (MEsbarg2Y1sbar sbar,g->Y1,sbar) 
                                              16           16         9(2)e-06
(PPExtractor) g ubar (MEubarg2Y1ubar ubar,g->Y1,ubar) 
                                              40           40        23(4)e-06
(PPExtractor) g dbar (MEdbarg2Y1dbar dbar,g->Y1,dbar) 
                                              31           31        18(3)e-06
(PPExtractor) g d (MEdg2Y1d d,g->Y1,d) 
                                             258          259     0.147(9)e-03
(PPExtractor) g u (MEug2Y1u u,g->Y1,u) 
                                             593          593      0.34(1)e-03
(PPExtractor) g s (MEsg2Y1s s,g->Y1,s) 
                                              12           12         7(2)e-06
(PPExtractor) g c (MEcg2Y1c c,g->Y1,c) 
                                              16           16         9(2)e-06
(PPExtractor) g b (MEbg2Y1b b,g->Y1,b) 
                                               5            5         3(1)e-06
==============================================================================
