>>>>>>>>>>>>>>>>>>>>>>>>>>>>>>>>>>>>>>>>>>>>>>>>>>>>>>>>>>>>>>>>>>>>>>>>>>>>>>
>>>> Toolkit for HEP Event Generation - ThePEG f0c7c9e4efc0 (default) <<<<<<<<
>>>> Fri Nov 15 16:29:32 2019                                             <<<<
<<<<<<<<<<<<<<<<<<<<<<<<<<<<<<<<<<<<<<<<<<<<<<<<<<<<<<<<<<<<<<<<<<<<<<<<<<<<<<

>> Herwig b7689adb1ad6 (default) / ThePEG f0c7c9e4efc0 (default)

==============================================================================
Statistics for event handler 'EventHandler':
                                       generated    number of    Cross-section
                                          events     attempts             (nb)
==============================================================================
Total (from attempted events): including vetoed events            41.2(1)e+00
==============================================================================
Total (from generated events):            30000        30003      41.1(1)e+00
Events carry unit weights.
==============================================================================
Per matrix element breakdown:
MEbbarg2Y1bbar                                89           89      0.12(1)e+00
MEcbarg2Y1cbar                               161          161      0.22(2)e+00
MEsbarg2Y1sbar                               219          219      0.30(2)e+00
MEubarg2Y1ubar                               360          360      0.49(3)e+00
MEdbarg2Y1dbar                               379          379      0.52(3)e+00
MEdubar2Y1W-                                   8            8        11(4)e-03
MEddbar2Y1g                                  800          800      1.10(4)e+00
MEddbar2Y1gamma                                0            0                0
MEddbar2Y1Z0                                   3            3         4(2)e-03
MEddbar2Y1Y1                                   1            1         1(1)e-03
MEdg2Y1d                                     944          944      1.29(4)e+00
MEuubar2Y1g                                 1148         1149      1.57(5)e+00
MEuubar2Y1gamma                               21           21        29(6)e-03
MEuubar2Y1Z0                                   2            2         3(2)e-03
MEuubar2Y1Y1                                   6            6         8(3)e-03
MEudbar2Y1W+                                  12           12        16(5)e-03
MEug2Y1u                                    1792         1792      2.46(6)e+00
MEscbar2Y1W-                                   0            0                0
MEssbar2Y1g                                  144          144      0.20(2)e+00
MEssbar2Y1gamma                                1            1         1(1)e-03
MEssbar2Y1Z0                                   0            0                0
MEssbar2Y1Y1                                   0            0                0
MEsg2Y1s                                     233          233      0.32(2)e+00
MEccbar2Y1g                                   65           65       90(10)e-03
MEccbar2Y1gamma                                0            0                0
MEccbar2Y1Z0                                   0            0                0
MEccbar2Y1Y1                                   0            0                0
MEcsbar2Y1W+                                   0            0                0
MEcg2Y1c                                     149          149      0.20(2)e+00
MEbbbar2Y1g                                   23           23        32(7)e-03
MEbbbar2Y1gamma                                0            0                0
MEbbbar2Y1Z0                                   0            0                0
MEbbbar2Y1H                                    0            0                0
MEbbbar2Y1Y1                                   0            0                0
MEbg2Y1b                                     107          107      0.15(1)e+00
MEbbbar2Y12XmXm                                0            0                0
MEbbbar2Y12ttbar                               0            0                0
MEbbbar2Y12bbbar                              99           99      0.14(1)e+00
MEbbbar2Y12ssbar                              88           88      0.12(1)e+00
MEbbbar2Y12ccbar                              78           78      0.11(1)e+00
MEbbbar2Y12ddbar                              80           80      0.11(1)e+00
MEbbbar2Y12uubar                              81           81      0.11(1)e+00
MEssbar2Y12XmXm                                0            0                0
MEssbar2Y12ttbar                               0            0                0
MEssbar2Y12bbbar                             387          387      0.53(3)e+00
MEssbar2Y12ssbar                             375          375      0.51(3)e+00
MEssbar2Y12ccbar                             360          360      0.49(3)e+00
MEssbar2Y12ddbar                             424          424      0.58(3)e+00
MEssbar2Y12uubar                             441          441      0.60(3)e+00
MEccbar2Y12XmXm                                0            0                0
MEccbar2Y12ttbar                               0            0                0
MEccbar2Y12bbbar                             206          206      0.28(2)e+00
MEccbar2Y12ssbar                             219          220      0.30(2)e+00
MEccbar2Y12ccbar                             223          223      0.31(2)e+00
MEccbar2Y12ddbar                             203          203      0.28(2)e+00
MEccbar2Y12uubar                             216          216      0.30(2)e+00
MEddbar2Y12XmXm                                0            0                0
MEddbar2Y12ttbar                               0            0                0
MEddbar2Y12bbbar                            1542         1542      2.11(5)e+00
MEddbar2Y12ssbar                            1584         1584      2.17(5)e+00
MEddbar2Y12ccbar                            1622         1622      2.22(5)e+00
MEddbar2Y12ddbar                            1569         1569      2.15(5)e+00
MEddbar2Y12uubar                            1609         1609      2.21(5)e+00
MEuubar2Y12XmXm                                0            0                0
MEuubar2Y12ttbar                               0            0                0
MEuubar2Y12bbbar                            2314         2314      3.17(6)e+00
MEuubar2Y12ssbar                            2423         2423      3.32(7)e+00
MEuubar2Y12ccbar                            2413         2413      3.31(7)e+00
MEuubar2Y12ddbar                            2400         2401      3.29(7)e+00
MEuubar2Y12uubar                            2377         2377      3.26(6)e+00
==============================================================================
Per parton extractor breakdown:
PPExtractor                                30000        30003      41.1(1)e+00
==============================================================================
Per incoming partons breakdown:
d dbar                                      4279         4279      5.87(8)e+00
d ubar                                         7            7       9.6(4)e-03
d g                                          488          488      0.67(3)e+00
dbar d                                      4451         4451      6.10(9)e+00
dbar u                                         4            4         5(3)e-03
dbar g                                       186          186      0.26(2)e+00
ubar d                                         1            1         1(1)e-03
ubar u                                      6544         6545       9.0(1)e+00
ubar g                                       182          182      0.25(2)e+00
u dbar                                         8            8        11(4)e-03
u ubar                                      6560         6561       9.0(1)e+00
u g                                          862          862      1.18(4)e+00
c cbar                                       549          549      0.75(3)e+00
c sbar                                         0            0                0
c g                                           65           65       90(10)e-03
cbar c                                       583          584      0.80(3)e+00
cbar s                                         0            0                0
cbar g                                        72           72        99(1)e-03
sbar c                                         0            0                0
sbar s                                      1090         1090      1.50(4)e+00
sbar g                                       114          114      0.16(1)e+00
s cbar                                         0            0                0
s sbar                                      1042         1042      1.43(4)e+00
s g                                          118          118      0.16(1)e+00
b bbar                                       238          238      0.33(2)e+00
b g                                           46           46        63(9)e-03
bbar b                                       211          211      0.29(2)e+00
bbar g                                        47           47        64(9)e-03
g d                                          456          456      0.63(3)e+00
g dbar                                       193          193      0.26(2)e+00
g ubar                                       178          178      0.24(2)e+00
g u                                          930          930      1.28(4)e+00
g c                                           84           84      0.12(1)e+00
g cbar                                        89           89      0.12(1)e+00
g sbar                                       105          105      0.14(1)e+00
g s                                          115          115      0.16(1)e+00
g b                                           61           61       80(10)e-03
g bbar                                        42           42        58(9)e-03
==============================================================================
Detailed breakdown:
(PPExtractor) bbar b (MEbbbar2Y1g b,bbar->Y1,g) 
                                               9            9        12(4)e-03
(PPExtractor) bbar b (MEbbbar2Y1gamma b,bbar->Y1,gamma) 
                                               0            0                0
(PPExtractor) bbar b (MEbbbar2Y1Z0 b,bbar->Y1,Z0) 
                                               0            0                0
(PPExtractor) bbar b (MEbbbar2Y1H b,bbar->Y1,H) 
                                               0            0                0
(PPExtractor) bbar b (MEbbbar2Y1Y1 b,bbar->Y1,Y1) 
                                               0            0                0
(PPExtractor) bbar b (MEbbbar2Y12XmXm b,bbar->Xm,Xm) 
                                               0            0                0
(PPExtractor) bbar b (MEbbbar2Y12ttbar b,bbar->t,tbar) 
                                               0            0                0
(PPExtractor) bbar b (MEbbbar2Y12bbbar b,bbar->b,bbar) 
                                              50           50       70(10)e-03
(PPExtractor) bbar b (MEbbbar2Y12ssbar b,bbar->s,sbar) 
                                              41           41        56(9)e-03
(PPExtractor) bbar b (MEbbbar2Y12ccbar b,bbar->c,cbar) 
                                              33           33        45(8)e-03
(PPExtractor) bbar b (MEbbbar2Y12ddbar b,bbar->d,dbar) 
                                              45           45        62(9)e-03
(PPExtractor) bbar b (MEbbbar2Y12uubar b,bbar->u,ubar) 
                                              33           33        45(8)e-03
(PPExtractor) bbar g (MEbbarg2Y1bbar bbar,g->Y1,bbar) 
                                              47           47        64(9)e-03
(PPExtractor) cbar s (MEscbar2Y1W- s,cbar->Y1,W-) 
                                               0            0                0
(PPExtractor) cbar c (MEccbar2Y1g c,cbar->Y1,g) 
                                              37           37        51(8)e-03
(PPExtractor) cbar c (MEccbar2Y1gamma c,cbar->Y1,gamma) 
                                               0            0                0
(PPExtractor) cbar c (MEccbar2Y1Z0 c,cbar->Y1,Z0) 
                                               0            0                0
(PPExtractor) cbar c (MEccbar2Y1Y1 c,cbar->Y1,Y1) 
                                               0            0                0
(PPExtractor) cbar c (MEccbar2Y12XmXm c,cbar->Xm,Xm) 
                                               0            0                0
(PPExtractor) cbar c (MEccbar2Y12ttbar c,cbar->t,tbar) 
                                               0            0                0
(PPExtractor) cbar c (MEccbar2Y12bbbar c,cbar->b,bbar) 
                                              93           93      0.13(1)e+00
(PPExtractor) cbar c (MEccbar2Y12ssbar c,cbar->s,sbar) 
                                             125          126      0.17(2)e+00
(PPExtractor) cbar c (MEccbar2Y12ccbar c,cbar->c,cbar) 
                                             121          121      0.17(2)e+00
(PPExtractor) cbar c (MEccbar2Y12ddbar c,cbar->d,dbar) 
                                             105          105      0.14(1)e+00
(PPExtractor) cbar c (MEccbar2Y12uubar c,cbar->u,ubar) 
                                             102          102      0.14(1)e+00
(PPExtractor) cbar g (MEcbarg2Y1cbar cbar,g->Y1,cbar) 
                                              72           72        99(1)e-03
(PPExtractor) sbar s (MEssbar2Y1g s,sbar->Y1,g) 
                                              71           71        97(1)e-03
(PPExtractor) sbar s (MEssbar2Y1gamma s,sbar->Y1,gamma) 
                                               1            1         1(1)e-03
(PPExtractor) sbar s (MEssbar2Y1Z0 s,sbar->Y1,Z0) 
                                               0            0                0
(PPExtractor) sbar s (MEssbar2Y1Y1 s,sbar->Y1,Y1) 
                                               0            0                0
(PPExtractor) sbar s (MEssbar2Y12XmXm s,sbar->Xm,Xm) 
                                               0            0                0
(PPExtractor) sbar s (MEssbar2Y12ttbar s,sbar->t,tbar) 
                                               0            0                0
(PPExtractor) sbar s (MEssbar2Y12bbbar s,sbar->b,bbar) 
                                             197          197      0.27(2)e+00
(PPExtractor) sbar s (MEssbar2Y12ssbar s,sbar->s,sbar) 
                                             204          204      0.28(2)e+00
(PPExtractor) sbar s (MEssbar2Y12ccbar s,sbar->c,cbar) 
                                             187          187      0.26(2)e+00
(PPExtractor) sbar s (MEssbar2Y12ddbar s,sbar->d,dbar) 
                                             198          198      0.27(2)e+00
(PPExtractor) sbar s (MEssbar2Y12uubar s,sbar->u,ubar) 
                                             232          232      0.32(2)e+00
(PPExtractor) sbar c (MEcsbar2Y1W+ c,sbar->Y1,W+) 
                                               0            0                0
(PPExtractor) sbar g (MEsbarg2Y1sbar sbar,g->Y1,sbar) 
                                             114          114      0.16(1)e+00
(PPExtractor) ubar d (MEdubar2Y1W- d,ubar->Y1,W-) 
                                               1            1         1(1)e-03
(PPExtractor) ubar u (MEuubar2Y1g u,ubar->Y1,g) 
                                             580          581      0.80(3)e+00
(PPExtractor) ubar u (MEuubar2Y1gamma u,ubar->Y1,gamma) 
                                              12           12        16(5)e-03
(PPExtractor) ubar u (MEuubar2Y1Z0 u,ubar->Y1,Z0) 
                                               0            0                0
(PPExtractor) ubar u (MEuubar2Y1Y1 u,ubar->Y1,Y1) 
                                               3            3         4(2)e-03
(PPExtractor) ubar u (MEuubar2Y12XmXm u,ubar->Xm,Xm) 
                                               0            0                0
(PPExtractor) ubar u (MEuubar2Y12ttbar u,ubar->t,tbar) 
                                               0            0                0
(PPExtractor) ubar u (MEuubar2Y12bbbar u,ubar->b,bbar) 
                                            1157         1157      1.59(5)e+00
(PPExtractor) ubar u (MEuubar2Y12ssbar u,ubar->s,sbar) 
                                            1220         1220      1.67(5)e+00
(PPExtractor) ubar u (MEuubar2Y12ccbar u,ubar->c,cbar) 
                                            1204         1204      1.65(5)e+00
(PPExtractor) ubar u (MEuubar2Y12ddbar u,ubar->d,dbar) 
                                            1181         1181      1.62(5)e+00
(PPExtractor) ubar u (MEuubar2Y12uubar u,ubar->u,ubar) 
                                            1187         1187      1.63(5)e+00
(PPExtractor) ubar g (MEubarg2Y1ubar ubar,g->Y1,ubar) 
                                             182          182      0.25(2)e+00
(PPExtractor) dbar d (MEddbar2Y1g d,dbar->Y1,g) 
                                             396          396      0.54(3)e+00
(PPExtractor) dbar d (MEddbar2Y1gamma d,dbar->Y1,gamma) 
                                               0            0                0
(PPExtractor) dbar d (MEddbar2Y1Z0 d,dbar->Y1,Z0) 
                                               0            0                0
(PPExtractor) dbar d (MEddbar2Y1Y1 d,dbar->Y1,Y1) 
                                               1            1         1(1)e-03
(PPExtractor) dbar d (MEddbar2Y12XmXm d,dbar->Xm,Xm) 
                                               0            0                0
(PPExtractor) dbar d (MEddbar2Y12ttbar d,dbar->t,tbar) 
                                               0            0                0
(PPExtractor) dbar d (MEddbar2Y12bbbar d,dbar->b,bbar) 
                                             794          794      1.09(4)e+00
(PPExtractor) dbar d (MEddbar2Y12ssbar d,dbar->s,sbar) 
                                             824          824      1.13(4)e+00
(PPExtractor) dbar d (MEddbar2Y12ccbar d,dbar->c,cbar) 
                                             823          823      1.13(4)e+00
(PPExtractor) dbar d (MEddbar2Y12ddbar d,dbar->d,dbar) 
                                             800          800      1.10(4)e+00
(PPExtractor) dbar d (MEddbar2Y12uubar d,dbar->u,ubar) 
                                             813          813      1.12(4)e+00
(PPExtractor) dbar u (MEudbar2Y1W+ u,dbar->Y1,W+) 
                                               4            4         5(3)e-03
(PPExtractor) dbar g (MEdbarg2Y1dbar dbar,g->Y1,dbar) 
                                             186          186      0.26(2)e+00
(PPExtractor) d ubar (MEdubar2Y1W- d,ubar->Y1,W-) 
                                               7            7       9.6(4)e-03
(PPExtractor) d dbar (MEddbar2Y1g d,dbar->Y1,g) 
                                             404          404      0.55(3)e+00
(PPExtractor) d dbar (MEddbar2Y1gamma d,dbar->Y1,gamma) 
                                               0            0                0
(PPExtractor) d dbar (MEddbar2Y1Z0 d,dbar->Y1,Z0) 
                                               3            3         4(2)e-03
(PPExtractor) d dbar (MEddbar2Y1Y1 d,dbar->Y1,Y1) 
                                               0            0                0
(PPExtractor) d dbar (MEddbar2Y12XmXm d,dbar->Xm,Xm) 
                                               0            0                0
(PPExtractor) d dbar (MEddbar2Y12ttbar d,dbar->t,tbar) 
                                               0            0                0
(PPExtractor) d dbar (MEddbar2Y12bbbar d,dbar->b,bbar) 
                                             748          748      1.03(4)e+00
(PPExtractor) d dbar (MEddbar2Y12ssbar d,dbar->s,sbar) 
                                             760          760      1.04(4)e+00
(PPExtractor) d dbar (MEddbar2Y12ccbar d,dbar->c,cbar) 
                                             799          799      1.10(4)e+00
(PPExtractor) d dbar (MEddbar2Y12ddbar d,dbar->d,dbar) 
                                             769          769      1.05(4)e+00
(PPExtractor) d dbar (MEddbar2Y12uubar d,dbar->u,ubar) 
                                             796          796      1.09(4)e+00
(PPExtractor) d g (MEdg2Y1d d,g->Y1,d) 
                                             488          488      0.67(3)e+00
(PPExtractor) u ubar (MEuubar2Y1g u,ubar->Y1,g) 
                                             568          568      0.78(3)e+00
(PPExtractor) u ubar (MEuubar2Y1gamma u,ubar->Y1,gamma) 
                                               9            9        12(4)e-03
(PPExtractor) u ubar (MEuubar2Y1Z0 u,ubar->Y1,Z0) 
                                               2            2         3(2)e-03
(PPExtractor) u ubar (MEuubar2Y1Y1 u,ubar->Y1,Y1) 
                                               3            3         4(2)e-03
(PPExtractor) u ubar (MEuubar2Y12XmXm u,ubar->Xm,Xm) 
                                               0            0                0
(PPExtractor) u ubar (MEuubar2Y12ttbar u,ubar->t,tbar) 
                                               0            0                0
(PPExtractor) u ubar (MEuubar2Y12bbbar u,ubar->b,bbar) 
                                            1157         1157      1.59(5)e+00
(PPExtractor) u ubar (MEuubar2Y12ssbar u,ubar->s,sbar) 
                                            1203         1203      1.65(5)e+00
(PPExtractor) u ubar (MEuubar2Y12ccbar u,ubar->c,cbar) 
                                            1209         1209      1.66(5)e+00
(PPExtractor) u ubar (MEuubar2Y12ddbar u,ubar->d,dbar) 
                                            1219         1220      1.67(5)e+00
(PPExtractor) u ubar (MEuubar2Y12uubar u,ubar->u,ubar) 
                                            1190         1190      1.63(5)e+00
(PPExtractor) u dbar (MEudbar2Y1W+ u,dbar->Y1,W+) 
                                               8            8        11(4)e-03
(PPExtractor) u g (MEug2Y1u u,g->Y1,u) 
                                             862          862      1.18(4)e+00
(PPExtractor) s cbar (MEscbar2Y1W- s,cbar->Y1,W-) 
                                               0            0                0
(PPExtractor) s sbar (MEssbar2Y1g s,sbar->Y1,g) 
                                              73           73      0.10(1)e+00
(PPExtractor) s sbar (MEssbar2Y1gamma s,sbar->Y1,gamma) 
                                               0            0                0
(PPExtractor) s sbar (MEssbar2Y1Z0 s,sbar->Y1,Z0) 
                                               0            0                0
(PPExtractor) s sbar (MEssbar2Y1Y1 s,sbar->Y1,Y1) 
                                               0            0                0
(PPExtractor) s sbar (MEssbar2Y12XmXm s,sbar->Xm,Xm) 
                                               0            0                0
(PPExtractor) s sbar (MEssbar2Y12ttbar s,sbar->t,tbar) 
                                               0            0                0
(PPExtractor) s sbar (MEssbar2Y12bbbar s,sbar->b,bbar) 
                                             190          190      0.26(2)e+00
(PPExtractor) s sbar (MEssbar2Y12ssbar s,sbar->s,sbar) 
                                             171          171      0.23(2)e+00
(PPExtractor) s sbar (MEssbar2Y12ccbar s,sbar->c,cbar) 
                                             173          173      0.24(2)e+00
(PPExtractor) s sbar (MEssbar2Y12ddbar s,sbar->d,dbar) 
                                             226          226      0.31(2)e+00
(PPExtractor) s sbar (MEssbar2Y12uubar s,sbar->u,ubar) 
                                             209          209      0.29(2)e+00
(PPExtractor) s g (MEsg2Y1s s,g->Y1,s) 
                                             118          118      0.16(1)e+00
(PPExtractor) c cbar (MEccbar2Y1g c,cbar->Y1,g) 
                                              28           28        38(7)e-03
(PPExtractor) c cbar (MEccbar2Y1gamma c,cbar->Y1,gamma) 
                                               0            0                0
(PPExtractor) c cbar (MEccbar2Y1Z0 c,cbar->Y1,Z0) 
                                               0            0                0
(PPExtractor) c cbar (MEccbar2Y1Y1 c,cbar->Y1,Y1) 
                                               0            0                0
(PPExtractor) c cbar (MEccbar2Y12XmXm c,cbar->Xm,Xm) 
                                               0            0                0
(PPExtractor) c cbar (MEccbar2Y12ttbar c,cbar->t,tbar) 
                                               0            0                0
(PPExtractor) c cbar (MEccbar2Y12bbbar c,cbar->b,bbar) 
                                             113          113      0.15(1)e+00
(PPExtractor) c cbar (MEccbar2Y12ssbar c,cbar->s,sbar) 
                                              94           94      0.13(1)e+00
(PPExtractor) c cbar (MEccbar2Y12ccbar c,cbar->c,cbar) 
                                             102          102      0.14(1)e+00
(PPExtractor) c cbar (MEccbar2Y12ddbar c,cbar->d,dbar) 
                                              98           98      0.13(1)e+00
(PPExtractor) c cbar (MEccbar2Y12uubar c,cbar->u,ubar) 
                                             114          114      0.16(1)e+00
(PPExtractor) c sbar (MEcsbar2Y1W+ c,sbar->Y1,W+) 
                                               0            0                0
(PPExtractor) c g (MEcg2Y1c c,g->Y1,c) 
                                              65           65       90(10)e-03
(PPExtractor) b bbar (MEbbbar2Y1g b,bbar->Y1,g) 
                                              14           14        19(5)e-03
(PPExtractor) b bbar (MEbbbar2Y1gamma b,bbar->Y1,gamma) 
                                               0            0                0
(PPExtractor) b bbar (MEbbbar2Y1Z0 b,bbar->Y1,Z0) 
                                               0            0                0
(PPExtractor) b bbar (MEbbbar2Y1H b,bbar->Y1,H) 
                                               0            0                0
(PPExtractor) b bbar (MEbbbar2Y1Y1 b,bbar->Y1,Y1) 
                                               0            0                0
(PPExtractor) b bbar (MEbbbar2Y12XmXm b,bbar->Xm,Xm) 
                                               0            0                0
(PPExtractor) b bbar (MEbbbar2Y12ttbar b,bbar->t,tbar) 
                                               0            0                0
(PPExtractor) b bbar (MEbbbar2Y12bbbar b,bbar->b,bbar) 
                                              49           49       70(10)e-03
(PPExtractor) b bbar (MEbbbar2Y12ssbar b,bbar->s,sbar) 
                                              47           47        64(9)e-03
(PPExtractor) b bbar (MEbbbar2Y12ccbar b,bbar->c,cbar) 
                                              45           45        62(9)e-03
(PPExtractor) b bbar (MEbbbar2Y12ddbar b,bbar->d,dbar) 
                                              35           35        48(8)e-03
(PPExtractor) b bbar (MEbbbar2Y12uubar b,bbar->u,ubar) 
                                              48           48        66(9)e-03
(PPExtractor) b g (MEbg2Y1b b,g->Y1,b) 
                                              46           46        63(9)e-03
(PPExtractor) g bbar (MEbbarg2Y1bbar bbar,g->Y1,bbar) 
                                              42           42        58(9)e-03
(PPExtractor) g cbar (MEcbarg2Y1cbar cbar,g->Y1,cbar) 
                                              89           89      0.12(1)e+00
(PPExtractor) g sbar (MEsbarg2Y1sbar sbar,g->Y1,sbar) 
                                             105          105      0.14(1)e+00
(PPExtractor) g ubar (MEubarg2Y1ubar ubar,g->Y1,ubar) 
                                             178          178      0.24(2)e+00
(PPExtractor) g dbar (MEdbarg2Y1dbar dbar,g->Y1,dbar) 
                                             193          193      0.26(2)e+00
(PPExtractor) g d (MEdg2Y1d d,g->Y1,d) 
                                             456          456      0.63(3)e+00
(PPExtractor) g u (MEug2Y1u u,g->Y1,u) 
                                             930          930      1.28(4)e+00
(PPExtractor) g s (MEsg2Y1s s,g->Y1,s) 
                                             115          115      0.16(1)e+00
(PPExtractor) g c (MEcg2Y1c c,g->Y1,c) 
                                              84           84      0.12(1)e+00
(PPExtractor) g b (MEbg2Y1b b,g->Y1,b) 
                                              61           61       80(10)e-03
==============================================================================
