#labels: abs_y_gam_plus_y_j1_ATLAS_lower[1] abs_y_gam_plus_y_j1_ATLAS_center[2] abs_y_gam_plus_y_j1_ATLAS_upper[3] tot_scale01[4] tot_scale01_Err[5] tot_scale02[6] tot_scale02_Err[7] tot_scale03[8] tot_scale03_Err[9] tot_scale04[10] tot_scale04_Err[11] tot_scale05[12] tot_scale05_Err[13] tot_scale06[14] tot_scale06_Err[15] tot_scale07[16] tot_scale07_Err[17]
#neval: 1500000000
#overflow:lower center upper 0.00000000000E+00 0.00000000000E+00 0.00000000000E+00 0.00000000000E+00 0.00000000000E+00 0.00000000000E+00 0.00000000000E+00 0.00000000000E+00 0.00000000000E+00 0.00000000000E+00 0.00000000000E+00 0.00000000000E+00 0.00000000000E+00 0.00000000000E+00 
0.00000000000E+00 4.00000000000E-01 8.00000000000E-01 1.02404640774E+05 1.94745711243E+01 1.03036746498E+05 1.96074308746E+01 1.12725241235E+05 2.36012717488E+01 1.13626666483E+05 2.37632838750E+01 1.01908327832E+05 1.92650104359E+01 9.38629335201E+04 1.64256022231E+01 9.34596562745E+04 1.62521539864E+01 
8.00000000000E-01 1.20000000000E+00 1.60000000000E+00 9.52835903400E+04 1.95268257574E+01 9.57130999106E+04 1.95716023845E+01 1.04611347759E+05 2.36763224740E+01 1.05263633626E+05 2.37298724861E+01 9.49566942996E+04 1.93833070855E+01 8.75226315996E+04 1.64601624350E+01 8.72636365408E+04 1.63413492428E+01 
1.60000000000E+00 2.00000000000E+00 2.40000000000E+00 8.16463170319E+04 1.90434370914E+01 8.18213502319E+04 1.90257383512E+01 8.91952577181E+04 2.31021515979E+01 8.95326743730E+04 2.30794060876E+01 8.15428206413E+04 1.89571278481E+01 7.52972713126E+04 1.60432590763E+01 7.52293098157E+04 1.59721283411E+01 
2.40000000000E+00 2.80000000000E+00 3.20000000000E+00 6.34961582929E+04 1.87982872073E+01 6.34873104374E+04 1.87726218069E+01 6.87897211906E+04 2.28397777090E+01 6.89041978169E+04 2.28081557066E+01 6.35699408260E+04 1.87284025078E+01 5.89498568961E+04 1.58095594939E+01 5.90393060919E+04 1.57524723500E+01 
3.20000000000E+00 3.60000000000E+00 4.00000000000E+00 4.13290421687E+04 1.77935561404E+01 4.12669822147E+04 1.77479997221E+01 4.42407522560E+04 2.16473890744E+01 4.42801852705E+04 2.15913299008E+01 4.14602618462E+04 1.77563003144E+01 3.87312532723E+04 1.49439051378E+01 3.88746397301E+04 1.49136901471E+01 
4.00000000000E+00 4.30000000000E+00 4.60000000000E+00 1.74489317225E+04 1.71865259921E+01 1.74368831033E+04 1.72214713484E+01 1.85000753919E+04 2.08843006123E+01 1.85392030892E+04 2.09265670029E+01 1.75077594197E+04 1.70946690124E+01 1.64723649606E+04 1.44526631170E+01 1.65369402117E+04 1.43765164872E+01 
#nx: 3
